solid OpenSCAD_Model
  facet normal 0.80901 -0.587795 0
    outer loop
      vertex 38.9635 0.0734148 18
      vertex 40 1.5 0
      vertex 40 1.5 18
    endloop
  endfacet
  facet normal 0.80901 -0.587795 0
    outer loop
      vertex 40 1.5 0
      vertex 38.9635 0.0734148 18
      vertex 38.9635 0.0734148 0
    endloop
  endfacet
  facet normal -0.309017 -0.951056 0
    outer loop
      vertex 0.286474 0.618321 0
      vertex 1.96352 0.0734148 18
      vertex 0.286474 0.618321 18
    endloop
  endfacet
  facet normal -0.309017 -0.951056 -0
    outer loop
      vertex 1.96352 0.0734148 18
      vertex 0.286474 0.618321 0
      vertex 1.96352 0.0734148 0
    endloop
  endfacet
  facet normal 1 -0 0
    outer loop
      vertex 40 1.5 18
      vertex 40 23.9264 0
      vertex 40 23.9264 18
    endloop
  endfacet
  facet normal 1 0 0
    outer loop
      vertex 40 23.9264 0
      vertex 40 1.5 18
      vertex 40 1.5 0
    endloop
  endfacet
  facet normal 0 1 -0
    outer loop
      vertex 15.8987 44 0
      vertex 0 44 18
      vertex 15.8987 44 18
    endloop
  endfacet
  facet normal 0 1 0
    outer loop
      vertex 0 44 18
      vertex 15.8987 44 0
      vertex 0 44 0
    endloop
  endfacet
  facet normal 0 -1 0
    outer loop
      vertex 1.96352 0.0734148 0
      vertex 38.9635 0.0734148 18
      vertex 1.96352 0.0734148 18
    endloop
  endfacet
  facet normal 0 -1 -0
    outer loop
      vertex 38.9635 0.0734148 18
      vertex 1.96352 0.0734148 0
      vertex 38.9635 0.0734148 0
    endloop
  endfacet
  facet normal -0.999936 -0.0112859 0
    outer loop
      vertex 0.286474 0.618321 0
      vertex 0 26 18
      vertex 0 26 0
    endloop
  endfacet
  facet normal -0.999936 -0.0112859 0
    outer loop
      vertex 0 26 18
      vertex 0.286474 0.618321 0
      vertex 0.286474 0.618321 18
    endloop
  endfacet
  facet normal -1 0 0
    outer loop
      vertex 0 26 0
      vertex 0 44 18
      vertex 0 44 0
    endloop
  endfacet
  facet normal -1 -0 0
    outer loop
      vertex 0 44 18
      vertex 0 26 0
      vertex 0 26 18
    endloop
  endfacet
  facet normal 0 0 -1
    outer loop
      vertex 22.9444 18.1078 0
      vertex 40 23.9264 0
      vertex 40 1.5 0
    endloop
  endfacet
  facet normal -0 0 -1
    outer loop
      vertex 40 23.9264 0
      vertex 22.9444 18.1078 0
      vertex 39.5729 24.2366 0
    endloop
  endfacet
  facet normal 0 0 -1
    outer loop
      vertex 21.454 16.8163 0
      vertex 40 1.5 0
      vertex 38.9635 0.0734148 0
    endloop
  endfacet
  facet normal 0 0 -1
    outer loop
      vertex 42.9271 28.8532 0
      vertex 60 28 0
      vertex 44.1013 28 0
    endloop
  endfacet
  facet normal 0 0 -1
    outer loop
      vertex 60 28 0
      vertex 43.5 68 0
      vertex 60 98 0
    endloop
  endfacet
  facet normal 0 0 -1
    outer loop
      vertex 42.9444 69.8922 0
      vertex 60 98 0
      vertex 43.5 68 0
    endloop
  endfacet
  facet normal 0 0 -1
    outer loop
      vertex 60 28 0
      vertex 42.9444 66.1078 0
      vertex 43.5 68 0
    endloop
  endfacet
  facet normal 0 0 -1
    outer loop
      vertex 60 28 0
      vertex 42.9271 28.8532 0
      vertex 41.454 64.8163 0
    endloop
  endfacet
  facet normal 0 0 -1
    outer loop
      vertex 60 28 0
      vertex 41.454 64.8163 0
      vertex 42.9444 66.1078 0
    endloop
  endfacet
  facet normal 0 0 -1
    outer loop
      vertex 39.5019 64.5356 0
      vertex 42.9271 28.8532 0
      vertex 41.0729 28.8532 0
    endloop
  endfacet
  facet normal 0 0 -1
    outer loop
      vertex 20.4271 44.2366 0
      vertex 41.0729 28.8532 0
      vertex 39.5729 27.7634 0
    endloop
  endfacet
  facet normal 0 0 -1
    outer loop
      vertex 42.9271 28.8532 0
      vertex 39.5019 64.5356 0
      vertex 41.454 64.8163 0
    endloop
  endfacet
  facet normal 0 0 -1
    outer loop
      vertex 22.9444 21.8922 0
      vertex 39.5729 27.7634 0
      vertex 39 26 0
    endloop
  endfacet
  facet normal 0 0 -1
    outer loop
      vertex 41.0729 28.8532 0
      vertex 21 46 0
      vertex 39.5019 64.5356 0
    endloop
  endfacet
  facet normal 0 -0 -1
    outer loop
      vertex 23.5 20 0
      vertex 39.5729 24.2366 0
      vertex 22.9444 18.1078 0
    endloop
  endfacet
  facet normal 0 0 -1
    outer loop
      vertex 39.5729 27.7634 0
      vertex 22.9444 21.8922 0
      vertex 21.454 23.1837 0
    endloop
  endfacet
  facet normal 0 0 -1
    outer loop
      vertex 20.4271 47.7634 0
      vertex 39.5019 64.5356 0
      vertex 21 46 0
    endloop
  endfacet
  facet normal 0 0 -1
    outer loop
      vertex 39 26 0
      vertex 23.5 20 0
      vertex 22.9444 21.8922 0
    endloop
  endfacet
  facet normal -0 0 -1
    outer loop
      vertex 39.5729 24.2366 0
      vertex 23.5 20 0
      vertex 39 26 0
    endloop
  endfacet
  facet normal 0 0 -1
    outer loop
      vertex 40 1.5 0
      vertex 21.454 16.8163 0
      vertex 22.9444 18.1078 0
    endloop
  endfacet
  facet normal 0 0 -1
    outer loop
      vertex 38.9635 0.0734148 0
      vertex 19.5019 16.5356 0
      vertex 21.454 16.8163 0
    endloop
  endfacet
  facet normal 0 0 -1
    outer loop
      vertex 1.96352 0.0734148 0
      vertex 19.5019 16.5356 0
      vertex 38.9635 0.0734148 0
    endloop
  endfacet
  facet normal 0 0 -1
    outer loop
      vertex 0 26 0
      vertex 16.6418 20.9861 0
      vertex 16.6418 19.0139 0
    endloop
  endfacet
  facet normal -0 0 -1
    outer loop
      vertex 19.5019 16.5356 0
      vertex 1.96352 0.0734148 0
      vertex 17.708 17.3549 0
    endloop
  endfacet
  facet normal 0 0 -1
    outer loop
      vertex 1.96352 0.0734148 0
      vertex 16.6418 19.0139 0
      vertex 17.708 17.3549 0
    endloop
  endfacet
  facet normal 0 0 -1
    outer loop
      vertex 0.286474 0.618321 0
      vertex 16.6418 19.0139 0
      vertex 1.96352 0.0734148 0
    endloop
  endfacet
  facet normal -0 0 -1
    outer loop
      vertex 16.6418 19.0139 0
      vertex 0.286474 0.618321 0
      vertex 0 26 0
    endloop
  endfacet
  facet normal 0 0 -1
    outer loop
      vertex 16.6418 20.9861 0
      vertex 0 26 0
      vertex 15.8987 44 0
    endloop
  endfacet
  facet normal -0 0 -1
    outer loop
      vertex 15.8987 44 0
      vertex 0 26 0
      vertex 0 44 0
    endloop
  endfacet
  facet normal 0 0 -1
    outer loop
      vertex 41.454 71.1837 0
      vertex 60 98 0
      vertex 42.9444 69.8922 0
    endloop
  endfacet
  facet normal -0 0 -1
    outer loop
      vertex 60 98 0
      vertex 42.9271 97.1468 0
      vertex 44.1013 98 0
    endloop
  endfacet
  facet normal 0 0 -1
    outer loop
      vertex 60 98 0
      vertex 41.454 71.1837 0
      vertex 42.9271 97.1468 0
    endloop
  endfacet
  facet normal 0 0 -1
    outer loop
      vertex 39.5019 71.4644 0
      vertex 42.9271 97.1468 0
      vertex 41.454 71.1837 0
    endloop
  endfacet
  facet normal -0 0 -1
    outer loop
      vertex 42.9271 97.1468 0
      vertex 39.5019 71.4644 0
      vertex 41.0729 97.1468 0
    endloop
  endfacet
  facet normal 0 0 -1
    outer loop
      vertex 37.708 70.6451 0
      vertex 41.0729 97.1468 0
      vertex 39.5019 71.4644 0
    endloop
  endfacet
  facet normal -0 0 -1
    outer loop
      vertex 41.0729 97.1468 0
      vertex 37.708 70.6451 0
      vertex 39.5729 98.2366 0
    endloop
  endfacet
  facet normal 0 0 -1
    outer loop
      vertex 20.049 98 0
      vertex 39.5729 98.2366 0
      vertex 37.708 70.6451 0
    endloop
  endfacet
  facet normal -0 0 -1
    outer loop
      vertex 39.5729 98.2366 0
      vertex 20.049 98 0
      vertex 39 100 0
    endloop
  endfacet
  facet normal 0 0 -1
    outer loop
      vertex 20.049 98 0
      vertex 37.708 70.6451 0
      vertex 36.6418 68.9861 0
    endloop
  endfacet
  facet normal -0 0 -1
    outer loop
      vertex 39.5019 64.5356 0
      vertex 20.4271 47.7634 0
      vertex 37.708 65.3549 0
    endloop
  endfacet
  facet normal 0 0 -1
    outer loop
      vertex 20 48.0736 0
      vertex 37.708 65.3549 0
      vertex 20.4271 47.7634 0
    endloop
  endfacet
  facet normal -0 0 -1
    outer loop
      vertex 37.708 65.3549 0
      vertex 20 48.0736 0
      vertex 36.6418 67.0139 0
    endloop
  endfacet
  facet normal -0 0 -1
    outer loop
      vertex 39.5729 27.7634 0
      vertex 21.454 23.1837 0
      vertex 20.4271 44.2366 0
    endloop
  endfacet
  facet normal -0 0 -1
    outer loop
      vertex 36.6418 67.0139 0
      vertex 20 48.0736 0
      vertex 36.6418 68.9861 0
    endloop
  endfacet
  facet normal 0 -0 -1
    outer loop
      vertex 21.9635 117.927 0
      vertex 39 100 0
      vertex 20.049 98 0
    endloop
  endfacet
  facet normal 0 0 -1
    outer loop
      vertex 39 100 0
      vertex 21.9635 117.927 0
      vertex 38.9635 117.927 0
    endloop
  endfacet
  facet normal 0 0 -1
    outer loop
      vertex 21.9635 117.927 0
      vertex 20.049 98 0
      vertex 20.2865 117.382 0
    endloop
  endfacet
  facet normal 0 0 -1
    outer loop
      vertex 20 98 0
      vertex 36.6418 68.9861 0
      vertex 20 48.0736 0
    endloop
  endfacet
  facet normal 0 0 -1
    outer loop
      vertex 36.6418 68.9861 0
      vertex 20 98 0
      vertex 20.049 98 0
    endloop
  endfacet
  facet normal 0 0 -1
    outer loop
      vertex 41.0729 28.8532 0
      vertex 20.4271 44.2366 0
      vertex 21 46 0
    endloop
  endfacet
  facet normal 0 0 -1
    outer loop
      vertex 18.9271 43.1468 0
      vertex 21.454 23.1837 0
      vertex 19.5019 23.4644 0
    endloop
  endfacet
  facet normal 0 0 -1
    outer loop
      vertex 21.454 23.1837 0
      vertex 18.9271 43.1468 0
      vertex 20.4271 44.2366 0
    endloop
  endfacet
  facet normal 0 0 -1
    outer loop
      vertex 17.0729 43.1468 0
      vertex 19.5019 23.4644 0
      vertex 17.708 22.6451 0
    endloop
  endfacet
  facet normal 0 0 -1
    outer loop
      vertex 19.5019 23.4644 0
      vertex 17.0729 43.1468 0
      vertex 18.9271 43.1468 0
    endloop
  endfacet
  facet normal 0 0 -1
    outer loop
      vertex 15.8987 44 0
      vertex 17.708 22.6451 0
      vertex 16.6418 20.9861 0
    endloop
  endfacet
  facet normal 0 0 -1
    outer loop
      vertex 17.708 22.6451 0
      vertex 15.8987 44 0
      vertex 17.0729 43.1468 0
    endloop
  endfacet
  facet normal 0 0 -1
    outer loop
      vertex 39.5729 101.763 0
      vertex 40 116.5 0
      vertex 40 102.074 0
    endloop
  endfacet
  facet normal 0 0 -1
    outer loop
      vertex 38.9635 117.927 0
      vertex 39.5729 101.763 0
      vertex 39 100 0
    endloop
  endfacet
  facet normal 0 0 -1
    outer loop
      vertex 39.5729 101.763 0
      vertex 38.9635 117.927 0
      vertex 40 116.5 0
    endloop
  endfacet
  facet normal 0 0 1
    outer loop
      vertex 40 116.5 18
      vertex 39.5729 101.763 18
      vertex 40 102.074 18
    endloop
  endfacet
  facet normal 0 0 1
    outer loop
      vertex 21.9635 117.927 18
      vertex 39.5729 101.763 18
      vertex 40 116.5 18
    endloop
  endfacet
  facet normal -0 0 1
    outer loop
      vertex 21.9635 117.927 18
      vertex 40 116.5 18
      vertex 38.9635 117.927 18
    endloop
  endfacet
  facet normal 0 0 1
    outer loop
      vertex 42.9271 97.1468 18
      vertex 60 98 18
      vertex 44.1013 98 18
    endloop
  endfacet
  facet normal 0 0 1
    outer loop
      vertex 60 98 18
      vertex 43.5 68 18
      vertex 60 28 18
    endloop
  endfacet
  facet normal -0 0 1
    outer loop
      vertex 42.9444 66.1078 18
      vertex 60 28 18
      vertex 43.5 68 18
    endloop
  endfacet
  facet normal 0 0 1
    outer loop
      vertex 60 98 18
      vertex 42.9444 69.8922 18
      vertex 43.5 68 18
    endloop
  endfacet
  facet normal 0 0 1
    outer loop
      vertex 41.454 71.1837 18
      vertex 60 98 18
      vertex 42.9271 97.1468 18
    endloop
  endfacet
  facet normal 0 0 1
    outer loop
      vertex 60 98 18
      vertex 41.454 71.1837 18
      vertex 42.9444 69.8922 18
    endloop
  endfacet
  facet normal 0 0 1
    outer loop
      vertex 39.5019 71.4644 18
      vertex 42.9271 97.1468 18
      vertex 41.0729 97.1468 18
    endloop
  endfacet
  facet normal 0 0 1
    outer loop
      vertex 37.708 70.6451 18
      vertex 41.0729 97.1468 18
      vertex 39.5729 98.2366 18
    endloop
  endfacet
  facet normal 0 0 1
    outer loop
      vertex 42.9271 97.1468 18
      vertex 39.5019 71.4644 18
      vertex 41.454 71.1837 18
    endloop
  endfacet
  facet normal 0 0 1
    outer loop
      vertex 20.049 98 18
      vertex 39.5729 98.2366 18
      vertex 39 100 18
    endloop
  endfacet
  facet normal 0 0 1
    outer loop
      vertex 41.0729 97.1468 18
      vertex 37.708 70.6451 18
      vertex 39.5019 71.4644 18
    endloop
  endfacet
  facet normal 0 0 1
    outer loop
      vertex 20.049 98 18
      vertex 39.5729 101.763 18
      vertex 21.9635 117.927 18
    endloop
  endfacet
  facet normal 0 0 1
    outer loop
      vertex 39.5729 98.2366 18
      vertex 20.049 98 18
      vertex 37.708 70.6451 18
    endloop
  endfacet
  facet normal 0 0 1
    outer loop
      vertex 20 48.0736 18
      vertex 36.6418 67.0139 18
      vertex 36.6418 68.9861 18
    endloop
  endfacet
  facet normal 0 0 1
    outer loop
      vertex 37.708 70.6451 18
      vertex 20.049 98 18
      vertex 36.6418 68.9861 18
    endloop
  endfacet
  facet normal 0 0 1
    outer loop
      vertex 36.6418 67.0139 18
      vertex 21 46 18
      vertex 22.9444 21.8922 18
    endloop
  endfacet
  facet normal 0 0 1
    outer loop
      vertex 39.5729 101.763 18
      vertex 20.049 98 18
      vertex 39 100 18
    endloop
  endfacet
  facet normal 0 0 1
    outer loop
      vertex 36.6418 67.0139 18
      vertex 22.9444 21.8922 18
      vertex 23.5 20 18
    endloop
  endfacet
  facet normal -0 0 1
    outer loop
      vertex 20.4271 44.2366 18
      vertex 22.9444 21.8922 18
      vertex 21 46 18
    endloop
  endfacet
  facet normal -0 0 1
    outer loop
      vertex 20 98 18
      vertex 36.6418 68.9861 18
      vertex 20.049 98 18
    endloop
  endfacet
  facet normal 0 0 1
    outer loop
      vertex 20.049 98 18
      vertex 21.9635 117.927 18
      vertex 20.2865 117.382 18
    endloop
  endfacet
  facet normal 0 0 1
    outer loop
      vertex 36.6418 67.0139 18
      vertex 20.4271 47.7634 18
      vertex 21 46 18
    endloop
  endfacet
  facet normal 0 0 1
    outer loop
      vertex 36.6418 68.9861 18
      vertex 20 98 18
      vertex 20 48.0736 18
    endloop
  endfacet
  facet normal 0 0 1
    outer loop
      vertex 36.6418 67.0139 18
      vertex 20 48.0736 18
      vertex 20.4271 47.7634 18
    endloop
  endfacet
  facet normal -0 0 1
    outer loop
      vertex 41.454 64.8163 18
      vertex 60 28 18
      vertex 42.9444 66.1078 18
    endloop
  endfacet
  facet normal -0 -0 1
    outer loop
      vertex 42.9271 28.8532 18
      vertex 60 28 18
      vertex 41.454 64.8163 18
    endloop
  endfacet
  facet normal 0 0 1
    outer loop
      vertex 60 28 18
      vertex 42.9271 28.8532 18
      vertex 44.1013 28 18
    endloop
  endfacet
  facet normal -0 0 1
    outer loop
      vertex 39.5019 64.5356 18
      vertex 42.9271 28.8532 18
      vertex 41.454 64.8163 18
    endloop
  endfacet
  facet normal 0 0 1
    outer loop
      vertex 42.9271 28.8532 18
      vertex 39.5019 64.5356 18
      vertex 41.0729 28.8532 18
    endloop
  endfacet
  facet normal 0 0 1
    outer loop
      vertex 37.708 65.3549 18
      vertex 41.0729 28.8532 18
      vertex 39.5019 64.5356 18
    endloop
  endfacet
  facet normal 0 0 1
    outer loop
      vertex 41.0729 28.8532 18
      vertex 37.708 65.3549 18
      vertex 39.5729 27.7634 18
    endloop
  endfacet
  facet normal 0 0 1
    outer loop
      vertex 23.5 20 18
      vertex 39.5729 27.7634 18
      vertex 37.708 65.3549 18
    endloop
  endfacet
  facet normal 0 0 1
    outer loop
      vertex 39.5729 27.7634 18
      vertex 23.5 20 18
      vertex 39 26 18
    endloop
  endfacet
  facet normal 0 0 1
    outer loop
      vertex 23.5 20 18
      vertex 37.708 65.3549 18
      vertex 36.6418 67.0139 18
    endloop
  endfacet
  facet normal 0 0 1
    outer loop
      vertex 22.9444 18.1078 18
      vertex 39 26 18
      vertex 23.5 20 18
    endloop
  endfacet
  facet normal 0 0 1
    outer loop
      vertex 39 26 18
      vertex 22.9444 18.1078 18
      vertex 38.9635 0.0734148 18
    endloop
  endfacet
  facet normal -0 0 1
    outer loop
      vertex 21.454 16.8163 18
      vertex 38.9635 0.0734148 18
      vertex 22.9444 18.1078 18
    endloop
  endfacet
  facet normal -0 0 1
    outer loop
      vertex 19.5019 16.5356 18
      vertex 38.9635 0.0734148 18
      vertex 21.454 16.8163 18
    endloop
  endfacet
  facet normal 0 0 1
    outer loop
      vertex 1.96352 0.0734148 18
      vertex 19.5019 16.5356 18
      vertex 17.708 17.3549 18
    endloop
  endfacet
  facet normal 0 0 1
    outer loop
      vertex 19.5019 16.5356 18
      vertex 1.96352 0.0734148 18
      vertex 38.9635 0.0734148 18
    endloop
  endfacet
  facet normal 0 0 1
    outer loop
      vertex 16.6418 19.0139 18
      vertex 1.96352 0.0734148 18
      vertex 17.708 17.3549 18
    endloop
  endfacet
  facet normal 0 0 1
    outer loop
      vertex 16.6418 20.9861 18
      vertex 1.96352 0.0734148 18
      vertex 16.6418 19.0139 18
    endloop
  endfacet
  facet normal 0 0 1
    outer loop
      vertex 16.6418 20.9861 18
      vertex 0 26 18
      vertex 1.96352 0.0734148 18
    endloop
  endfacet
  facet normal 0 0 1
    outer loop
      vertex 0 26 18
      vertex 15.8987 44 18
      vertex 0 44 18
    endloop
  endfacet
  facet normal 0 0 1
    outer loop
      vertex 1.96352 0.0734148 18
      vertex 0 26 18
      vertex 0.286474 0.618321 18
    endloop
  endfacet
  facet normal 0 0 1
    outer loop
      vertex 39.5729 24.2366 18
      vertex 40 1.5 18
      vertex 40 23.9264 18
    endloop
  endfacet
  facet normal 0 0 1
    outer loop
      vertex 38.9635 0.0734148 18
      vertex 39.5729 24.2366 18
      vertex 39 26 18
    endloop
  endfacet
  facet normal 0 0 1
    outer loop
      vertex 39.5729 24.2366 18
      vertex 38.9635 0.0734148 18
      vertex 40 1.5 18
    endloop
  endfacet
  facet normal 0 0 1
    outer loop
      vertex 22.9444 21.8922 18
      vertex 20.4271 44.2366 18
      vertex 21.454 23.1837 18
    endloop
  endfacet
  facet normal -0 0 1
    outer loop
      vertex 18.9271 43.1468 18
      vertex 21.454 23.1837 18
      vertex 20.4271 44.2366 18
    endloop
  endfacet
  facet normal 0 0 1
    outer loop
      vertex 21.454 23.1837 18
      vertex 18.9271 43.1468 18
      vertex 19.5019 23.4644 18
    endloop
  endfacet
  facet normal -0 0 1
    outer loop
      vertex 17.0729 43.1468 18
      vertex 19.5019 23.4644 18
      vertex 18.9271 43.1468 18
    endloop
  endfacet
  facet normal 0 0 1
    outer loop
      vertex 19.5019 23.4644 18
      vertex 17.0729 43.1468 18
      vertex 17.708 22.6451 18
    endloop
  endfacet
  facet normal 0 0 1
    outer loop
      vertex 0 26 18
      vertex 17.0729 43.1468 18
      vertex 15.8987 44 18
    endloop
  endfacet
  facet normal 0 0 1
    outer loop
      vertex 17.708 22.6451 18
      vertex 0 26 18
      vertex 16.6418 20.9861 18
    endloop
  endfacet
  facet normal 0 0 1
    outer loop
      vertex 17.0729 43.1468 18
      vertex 0 26 18
      vertex 17.708 22.6451 18
    endloop
  endfacet
  facet normal 1 -0 0
    outer loop
      vertex 60 28 18
      vertex 60 98 0
      vertex 60 98 18
    endloop
  endfacet
  facet normal 1 0 0
    outer loop
      vertex 60 98 0
      vertex 60 28 18
      vertex 60 28 0
    endloop
  endfacet
  facet normal -1 0 0
    outer loop
      vertex 20 48.0736 0
      vertex 20 98 18
      vertex 20 98 0
    endloop
  endfacet
  facet normal -1 -0 0
    outer loop
      vertex 20 98 18
      vertex 20 48.0736 0
      vertex 20 48.0736 18
    endloop
  endfacet
  facet normal 0 1 -0
    outer loop
      vertex 20.049 98 0
      vertex 20 98 18
      vertex 20.049 98 18
    endloop
  endfacet
  facet normal 0 1 0
    outer loop
      vertex 20 98 18
      vertex 20.049 98 0
      vertex 20 98 0
    endloop
  endfacet
  facet normal 0 1 -0
    outer loop
      vertex 60 98 0
      vertex 44.1013 98 18
      vertex 60 98 18
    endloop
  endfacet
  facet normal 0 1 0
    outer loop
      vertex 44.1013 98 18
      vertex 60 98 0
      vertex 44.1013 98 0
    endloop
  endfacet
  facet normal 0 -1 0
    outer loop
      vertex 44.1013 28 0
      vertex 60 28 18
      vertex 44.1013 28 18
    endloop
  endfacet
  facet normal 0 -1 -0
    outer loop
      vertex 60 28 18
      vertex 44.1013 28 0
      vertex 60 28 0
    endloop
  endfacet
  facet normal 0.809091 0.587683 0
    outer loop
      vertex 40 116.5 18
      vertex 38.9635 117.927 0
      vertex 38.9635 117.927 18
    endloop
  endfacet
  facet normal 0.809091 0.587683 0
    outer loop
      vertex 38.9635 117.927 0
      vertex 40 116.5 18
      vertex 40 116.5 0
    endloop
  endfacet
  facet normal 0 1 -0
    outer loop
      vertex 38.9635 117.927 0
      vertex 21.9635 117.927 18
      vertex 38.9635 117.927 18
    endloop
  endfacet
  facet normal 0 1 0
    outer loop
      vertex 21.9635 117.927 18
      vertex 38.9635 117.927 0
      vertex 21.9635 117.927 0
    endloop
  endfacet
  facet normal -0.999925 0.0122527 0
    outer loop
      vertex 20.049 98 0
      vertex 20.2865 117.382 18
      vertex 20.2865 117.382 0
    endloop
  endfacet
  facet normal -0.999925 0.0122527 0
    outer loop
      vertex 20.2865 117.382 18
      vertex 20.049 98 0
      vertex 20.049 98 18
    endloop
  endfacet
  facet normal -0.309073 0.951038 0
    outer loop
      vertex 21.9635 117.927 0
      vertex 20.2865 117.382 18
      vertex 21.9635 117.927 18
    endloop
  endfacet
  facet normal -0.309073 0.951038 0
    outer loop
      vertex 20.2865 117.382 18
      vertex 21.9635 117.927 0
      vertex 20.2865 117.382 0
    endloop
  endfacet
  facet normal 1 -0 0
    outer loop
      vertex 40 102.074 18
      vertex 40 116.5 0
      vertex 40 116.5 18
    endloop
  endfacet
  facet normal 1 0 0
    outer loop
      vertex 40 116.5 0
      vertex 40 102.074 18
      vertex 40 102.074 0
    endloop
  endfacet
  facet normal -0.654878 -0.755734 0
    outer loop
      vertex 21.454 23.1837 0
      vertex 22.9444 21.8922 18
      vertex 21.454 23.1837 18
    endloop
  endfacet
  facet normal -0.654878 -0.755734 -0
    outer loop
      vertex 22.9444 21.8922 18
      vertex 21.454 23.1837 0
      vertex 22.9444 21.8922 0
    endloop
  endfacet
  facet normal -0.959493 -0.281733 0
    outer loop
      vertex 23.5 20 0
      vertex 22.9444 21.8922 18
      vertex 22.9444 21.8922 0
    endloop
  endfacet
  facet normal -0.959493 -0.281733 0
    outer loop
      vertex 22.9444 21.8922 18
      vertex 23.5 20 0
      vertex 23.5 20 18
    endloop
  endfacet
  facet normal -0.14233 -0.989819 0
    outer loop
      vertex 19.5019 23.4644 0
      vertex 21.454 23.1837 18
      vertex 19.5019 23.4644 18
    endloop
  endfacet
  facet normal -0.14233 -0.989819 -0
    outer loop
      vertex 21.454 23.1837 18
      vertex 19.5019 23.4644 0
      vertex 21.454 23.1837 0
    endloop
  endfacet
  facet normal 0.415437 -0.909622 0
    outer loop
      vertex 17.708 22.6451 0
      vertex 19.5019 23.4644 18
      vertex 17.708 22.6451 18
    endloop
  endfacet
  facet normal 0.415437 -0.909622 0
    outer loop
      vertex 19.5019 23.4644 18
      vertex 17.708 22.6451 0
      vertex 19.5019 23.4644 0
    endloop
  endfacet
  facet normal 1 -0 0
    outer loop
      vertex 16.6418 19.0139 18
      vertex 16.6418 20.9861 0
      vertex 16.6418 20.9861 18
    endloop
  endfacet
  facet normal 1 0 0
    outer loop
      vertex 16.6418 20.9861 0
      vertex 16.6418 19.0139 18
      vertex 16.6418 19.0139 0
    endloop
  endfacet
  facet normal -0.14233 0.989819 0
    outer loop
      vertex 21.454 16.8163 0
      vertex 19.5019 16.5356 18
      vertex 21.454 16.8163 18
    endloop
  endfacet
  facet normal -0.14233 0.989819 0
    outer loop
      vertex 19.5019 16.5356 18
      vertex 21.454 16.8163 0
      vertex 19.5019 16.5356 0
    endloop
  endfacet
  facet normal -0.654878 0.755734 0
    outer loop
      vertex 22.9444 18.1078 0
      vertex 21.454 16.8163 18
      vertex 22.9444 18.1078 18
    endloop
  endfacet
  facet normal -0.654878 0.755734 0
    outer loop
      vertex 21.454 16.8163 18
      vertex 22.9444 18.1078 0
      vertex 21.454 16.8163 0
    endloop
  endfacet
  facet normal 0.841248 0.54065 0
    outer loop
      vertex 17.708 17.3549 18
      vertex 16.6418 19.0139 0
      vertex 16.6418 19.0139 18
    endloop
  endfacet
  facet normal 0.841248 0.54065 0
    outer loop
      vertex 16.6418 19.0139 0
      vertex 17.708 17.3549 18
      vertex 17.708 17.3549 0
    endloop
  endfacet
  facet normal -0.959493 0.281733 0
    outer loop
      vertex 22.9444 18.1078 0
      vertex 23.5 20 18
      vertex 23.5 20 0
    endloop
  endfacet
  facet normal -0.959493 0.281733 0
    outer loop
      vertex 23.5 20 18
      vertex 22.9444 18.1078 0
      vertex 22.9444 18.1078 18
    endloop
  endfacet
  facet normal 0.841248 -0.54065 0
    outer loop
      vertex 16.6418 20.9861 18
      vertex 17.708 22.6451 0
      vertex 17.708 22.6451 18
    endloop
  endfacet
  facet normal 0.841248 -0.54065 0
    outer loop
      vertex 17.708 22.6451 0
      vertex 16.6418 20.9861 18
      vertex 16.6418 20.9861 0
    endloop
  endfacet
  facet normal 0.415437 0.909622 -0
    outer loop
      vertex 19.5019 16.5356 0
      vertex 17.708 17.3549 18
      vertex 19.5019 16.5356 18
    endloop
  endfacet
  facet normal 0.415437 0.909622 0
    outer loop
      vertex 17.708 17.3549 18
      vertex 19.5019 16.5356 0
      vertex 17.708 17.3549 0
    endloop
  endfacet
  facet normal -0.654878 -0.755734 0
    outer loop
      vertex 41.454 71.1837 0
      vertex 42.9444 69.8922 18
      vertex 41.454 71.1837 18
    endloop
  endfacet
  facet normal -0.654878 -0.755734 -0
    outer loop
      vertex 42.9444 69.8922 18
      vertex 41.454 71.1837 0
      vertex 42.9444 69.8922 0
    endloop
  endfacet
  facet normal -0.959493 -0.281733 0
    outer loop
      vertex 43.5 68 0
      vertex 42.9444 69.8922 18
      vertex 42.9444 69.8922 0
    endloop
  endfacet
  facet normal -0.959493 -0.281733 0
    outer loop
      vertex 42.9444 69.8922 18
      vertex 43.5 68 0
      vertex 43.5 68 18
    endloop
  endfacet
  facet normal -0.14233 -0.989819 0
    outer loop
      vertex 39.5019 71.4644 0
      vertex 41.454 71.1837 18
      vertex 39.5019 71.4644 18
    endloop
  endfacet
  facet normal -0.14233 -0.989819 -0
    outer loop
      vertex 41.454 71.1837 18
      vertex 39.5019 71.4644 0
      vertex 41.454 71.1837 0
    endloop
  endfacet
  facet normal 0.415437 -0.909622 0
    outer loop
      vertex 37.708 70.6451 0
      vertex 39.5019 71.4644 18
      vertex 37.708 70.6451 18
    endloop
  endfacet
  facet normal 0.415437 -0.909622 0
    outer loop
      vertex 39.5019 71.4644 18
      vertex 37.708 70.6451 0
      vertex 39.5019 71.4644 0
    endloop
  endfacet
  facet normal 1 -0 0
    outer loop
      vertex 36.6418 67.0139 18
      vertex 36.6418 68.9861 0
      vertex 36.6418 68.9861 18
    endloop
  endfacet
  facet normal 1 0 0
    outer loop
      vertex 36.6418 68.9861 0
      vertex 36.6418 67.0139 18
      vertex 36.6418 67.0139 0
    endloop
  endfacet
  facet normal -0.14233 0.989819 0
    outer loop
      vertex 41.454 64.8163 0
      vertex 39.5019 64.5356 18
      vertex 41.454 64.8163 18
    endloop
  endfacet
  facet normal -0.14233 0.989819 0
    outer loop
      vertex 39.5019 64.5356 18
      vertex 41.454 64.8163 0
      vertex 39.5019 64.5356 0
    endloop
  endfacet
  facet normal -0.654878 0.755734 0
    outer loop
      vertex 42.9444 66.1078 0
      vertex 41.454 64.8163 18
      vertex 42.9444 66.1078 18
    endloop
  endfacet
  facet normal -0.654878 0.755734 0
    outer loop
      vertex 41.454 64.8163 18
      vertex 42.9444 66.1078 0
      vertex 41.454 64.8163 0
    endloop
  endfacet
  facet normal 0.841248 0.54065 0
    outer loop
      vertex 37.708 65.3549 18
      vertex 36.6418 67.0139 0
      vertex 36.6418 67.0139 18
    endloop
  endfacet
  facet normal 0.841248 0.54065 0
    outer loop
      vertex 36.6418 67.0139 0
      vertex 37.708 65.3549 18
      vertex 37.708 65.3549 0
    endloop
  endfacet
  facet normal -0.959493 0.281733 0
    outer loop
      vertex 42.9444 66.1078 0
      vertex 43.5 68 18
      vertex 43.5 68 0
    endloop
  endfacet
  facet normal -0.959493 0.281733 0
    outer loop
      vertex 43.5 68 18
      vertex 42.9444 66.1078 0
      vertex 42.9444 66.1078 18
    endloop
  endfacet
  facet normal 0.841248 -0.54065 0
    outer loop
      vertex 36.6418 68.9861 18
      vertex 37.708 70.6451 0
      vertex 37.708 70.6451 18
    endloop
  endfacet
  facet normal 0.841248 -0.54065 0
    outer loop
      vertex 37.708 70.6451 0
      vertex 36.6418 68.9861 18
      vertex 36.6418 68.9861 0
    endloop
  endfacet
  facet normal 0.415437 0.909622 -0
    outer loop
      vertex 39.5019 64.5356 0
      vertex 37.708 65.3549 18
      vertex 39.5019 64.5356 18
    endloop
  endfacet
  facet normal 0.415437 0.909622 0
    outer loop
      vertex 37.708 65.3549 18
      vertex 39.5019 64.5356 0
      vertex 37.708 65.3549 0
    endloop
  endfacet
  facet normal 0.587828 0.808986 -0
    outer loop
      vertex 17.0729 43.1468 0
      vertex 15.8987 44 18
      vertex 17.0729 43.1468 18
    endloop
  endfacet
  facet normal 0.587828 0.808986 0
    outer loop
      vertex 15.8987 44 18
      vertex 17.0729 43.1468 0
      vertex 15.8987 44 0
    endloop
  endfacet
  facet normal -0.587653 -0.809113 0
    outer loop
      vertex 20 48.0736 0
      vertex 20.4271 47.7634 18
      vertex 20 48.0736 18
    endloop
  endfacet
  facet normal -0.587653 -0.809113 -0
    outer loop
      vertex 20.4271 47.7634 18
      vertex 20 48.0736 0
      vertex 20.4271 47.7634 0
    endloop
  endfacet
  facet normal -0.951067 -0.308986 0
    outer loop
      vertex 21 46 0
      vertex 20.4271 47.7634 18
      vertex 20.4271 47.7634 0
    endloop
  endfacet
  facet normal -0.951067 -0.308986 0
    outer loop
      vertex 20.4271 47.7634 18
      vertex 21 46 0
      vertex 21 46 18
    endloop
  endfacet
  facet normal -0.58778 0.809021 0
    outer loop
      vertex 20.4271 44.2366 0
      vertex 18.9271 43.1468 18
      vertex 20.4271 44.2366 18
    endloop
  endfacet
  facet normal -0.58778 0.809021 0
    outer loop
      vertex 18.9271 43.1468 18
      vertex 20.4271 44.2366 0
      vertex 18.9271 43.1468 0
    endloop
  endfacet
  facet normal 0 1 -0
    outer loop
      vertex 18.9271 43.1468 0
      vertex 17.0729 43.1468 18
      vertex 18.9271 43.1468 18
    endloop
  endfacet
  facet normal 0 1 0
    outer loop
      vertex 17.0729 43.1468 18
      vertex 18.9271 43.1468 0
      vertex 17.0729 43.1468 0
    endloop
  endfacet
  facet normal -0.951067 0.308986 0
    outer loop
      vertex 20.4271 44.2366 0
      vertex 21 46 18
      vertex 21 46 0
    endloop
  endfacet
  facet normal -0.951067 0.308986 0
    outer loop
      vertex 21 46 18
      vertex 20.4271 44.2366 0
      vertex 20.4271 44.2366 18
    endloop
  endfacet
  facet normal 0.951046 -0.309049 0
    outer loop
      vertex 39 100 18
      vertex 39.5729 101.763 0
      vertex 39.5729 101.763 18
    endloop
  endfacet
  facet normal 0.951046 -0.309049 0
    outer loop
      vertex 39.5729 101.763 0
      vertex 39 100 18
      vertex 39 100 0
    endloop
  endfacet
  facet normal 0.58778 0.809021 -0
    outer loop
      vertex 41.0729 97.1468 0
      vertex 39.5729 98.2366 18
      vertex 41.0729 97.1468 18
    endloop
  endfacet
  facet normal 0.58778 0.809021 0
    outer loop
      vertex 39.5729 98.2366 18
      vertex 41.0729 97.1468 0
      vertex 39.5729 98.2366 0
    endloop
  endfacet
  facet normal -0.587828 0.808986 0
    outer loop
      vertex 44.1013 98 0
      vertex 42.9271 97.1468 18
      vertex 44.1013 98 18
    endloop
  endfacet
  facet normal -0.587828 0.808986 0
    outer loop
      vertex 42.9271 97.1468 18
      vertex 44.1013 98 0
      vertex 42.9271 97.1468 0
    endloop
  endfacet
  facet normal 0 1 -0
    outer loop
      vertex 42.9271 97.1468 0
      vertex 41.0729 97.1468 18
      vertex 42.9271 97.1468 18
    endloop
  endfacet
  facet normal 0 1 0
    outer loop
      vertex 41.0729 97.1468 18
      vertex 42.9271 97.1468 0
      vertex 41.0729 97.1468 0
    endloop
  endfacet
  facet normal 0.588644 -0.808392 0
    outer loop
      vertex 39.5729 101.763 0
      vertex 40 102.074 18
      vertex 39.5729 101.763 18
    endloop
  endfacet
  facet normal 0.588644 -0.808392 0
    outer loop
      vertex 40 102.074 18
      vertex 39.5729 101.763 0
      vertex 40 102.074 0
    endloop
  endfacet
  facet normal 0.951067 0.308986 0
    outer loop
      vertex 39.5729 98.2366 18
      vertex 39 100 0
      vertex 39 100 18
    endloop
  endfacet
  facet normal 0.951067 0.308986 0
    outer loop
      vertex 39 100 0
      vertex 39.5729 98.2366 18
      vertex 39.5729 98.2366 0
    endloop
  endfacet
  facet normal 0.951067 -0.308986 0
    outer loop
      vertex 39 26 18
      vertex 39.5729 27.7634 0
      vertex 39.5729 27.7634 18
    endloop
  endfacet
  facet normal 0.951067 -0.308986 0
    outer loop
      vertex 39.5729 27.7634 0
      vertex 39 26 18
      vertex 39 26 0
    endloop
  endfacet
  facet normal 0.587653 0.809113 -0
    outer loop
      vertex 40 23.9264 0
      vertex 39.5729 24.2366 18
      vertex 40 23.9264 18
    endloop
  endfacet
  facet normal 0.587653 0.809113 0
    outer loop
      vertex 39.5729 24.2366 18
      vertex 40 23.9264 0
      vertex 39.5729 24.2366 0
    endloop
  endfacet
  facet normal -0.587828 -0.808986 0
    outer loop
      vertex 42.9271 28.8532 0
      vertex 44.1013 28 18
      vertex 42.9271 28.8532 18
    endloop
  endfacet
  facet normal -0.587828 -0.808986 -0
    outer loop
      vertex 44.1013 28 18
      vertex 42.9271 28.8532 0
      vertex 44.1013 28 0
    endloop
  endfacet
  facet normal 0 -1 0
    outer loop
      vertex 41.0729 28.8532 0
      vertex 42.9271 28.8532 18
      vertex 41.0729 28.8532 18
    endloop
  endfacet
  facet normal 0 -1 -0
    outer loop
      vertex 42.9271 28.8532 18
      vertex 41.0729 28.8532 0
      vertex 42.9271 28.8532 0
    endloop
  endfacet
  facet normal 0.58778 -0.809021 0
    outer loop
      vertex 39.5729 27.7634 0
      vertex 41.0729 28.8532 18
      vertex 39.5729 27.7634 18
    endloop
  endfacet
  facet normal 0.58778 -0.809021 0
    outer loop
      vertex 41.0729 28.8532 18
      vertex 39.5729 27.7634 0
      vertex 41.0729 28.8532 0
    endloop
  endfacet
  facet normal 0.951067 0.308986 0
    outer loop
      vertex 39.5729 24.2366 18
      vertex 39 26 0
      vertex 39 26 18
    endloop
  endfacet
  facet normal 0.951067 0.308986 0
    outer loop
      vertex 39 26 0
      vertex 39.5729 24.2366 18
      vertex 39.5729 24.2366 0
    endloop
  endfacet
endsolid OpenSCAD_Model
